('C:\\Users\\Destiny\\Documents\\caldwell-reading-software\\CRS1\\build\\CRS\\out00-PKG.pkg',
 {'BINARY': 1,
  'DATA': 1,
  'EXECUTABLE': 1,
  'EXTENSION': 1,
  'PYMODULE': 1,
  'PYSOURCE': 1,
  'PYZ': 0},
 [('out00-PYZ.pyz',
   'C:\\Users\\Destiny\\Documents\\caldwell-reading-software\\CRS1\\build\\CRS\\out00-PYZ.pyz',
   'PYZ'),
  ('struct',
   'C:\\Users\\Destiny\\AppData\\Local\\Programs\\Python\\Python35\\lib\\struct.pyo',
   'PYMODULE'),
  ('pyimod01_os_path',
   'C:\\Users\\Destiny\\AppData\\Local\\Programs\\Python\\Python35\\lib\\site-packages\\PyInstaller\\loader\\pyimod01_os_path.pyc',
   'PYMODULE'),
  ('pyimod02_archive',
   'C:\\Users\\Destiny\\AppData\\Local\\Programs\\Python\\Python35\\lib\\site-packages\\PyInstaller\\loader\\pyimod02_archive.pyc',
   'PYMODULE'),
  ('pyimod03_importers',
   'C:\\Users\\Destiny\\AppData\\Local\\Programs\\Python\\Python35\\lib\\site-packages\\PyInstaller\\loader\\pyimod03_importers.pyc',
   'PYMODULE'),
  ('pyiboot01_bootstrap',
   'C:\\Users\\Destiny\\AppData\\Local\\Programs\\Python\\Python35\\lib\\site-packages\\PyInstaller\\loader\\pyiboot01_bootstrap.py',
   'PYSOURCE'),
  ('pyi_rth_gstreamer',
   'C:\\Users\\Destiny\\AppData\\Local\\Programs\\Python\\Python35\\lib\\site-packages\\PyInstaller\\loader\\rthooks\\pyi_rth_gstreamer.py',
   'PYSOURCE'),
  ('pyi_rth_kivy',
   'C:\\Users\\Destiny\\AppData\\Local\\Programs\\Python\\Python35\\lib\\site-packages\\PyInstaller\\loader\\rthooks\\pyi_rth_kivy.py',
   'PYSOURCE'),
  ('pyi_rth_pkgres',
   'C:\\Users\\Destiny\\AppData\\Local\\Programs\\Python\\Python35\\lib\\site-packages\\PyInstaller\\loader\\rthooks\\pyi_rth_pkgres.py',
   'PYSOURCE'),
  ('pyi_rth_win32comgenpy',
   'C:\\Users\\Destiny\\AppData\\Local\\Programs\\Python\\Python35\\lib\\site-packages\\PyInstaller\\loader\\rthooks\\pyi_rth_win32comgenpy.py',
   'PYSOURCE'),
  ('main',
   'C:\\Users\\Destiny\\Documents\\caldwell-reading-software\\main.py',
   'PYSOURCE'),
  ('CRS.exe.manifest',
   'C:\\Users\\Destiny\\Documents\\caldwell-reading-software\\CRS1\\build\\CRS\\CRS.exe.manifest',
   'BINARY')],
 True,
 False,
 False)
