([('CRS.exe',
   'C:\\Users\\Destiny\\Documents\\caldwell-reading-software\\CRS1\\build\\CRS\\CRS.exe',
   'EXECUTABLE'),
  ('CRS.exe.manifest',
   'C:\\Users\\Destiny\\Documents\\caldwell-reading-software\\CRS1\\build\\CRS\\CRS.exe.manifest',
   'BINARY'),
  ('api-ms-win-crt-runtime-l1-1-0.dll',
   'C:\\WINDOWS\\system32\\api-ms-win-crt-runtime-l1-1-0.dll',
   'BINARY'),
  ('api-ms-win-crt-heap-l1-1-0.dll',
   'C:\\WINDOWS\\system32\\api-ms-win-crt-heap-l1-1-0.dll',
   'BINARY'),
  ('api-ms-win-crt-stdio-l1-1-0.dll',
   'C:\\WINDOWS\\system32\\api-ms-win-crt-stdio-l1-1-0.dll',
   'BINARY'),
  ('python35.dll',
   'C:\\Users\\Destiny\\AppData\\Local\\Programs\\Python\\Python35\\python35.dll',
   'BINARY'),
  ('api-ms-win-crt-locale-l1-1-0.dll',
   'C:\\WINDOWS\\system32\\api-ms-win-crt-locale-l1-1-0.dll',
   'BINARY'),
  ('VCRUNTIME140.dll',
   'C:\\Users\\Destiny\\AppData\\Local\\Programs\\Python\\Python35\\VCRUNTIME140.dll',
   'BINARY'),
  ('api-ms-win-crt-math-l1-1-0.dll',
   'C:\\WINDOWS\\system32\\api-ms-win-crt-math-l1-1-0.dll',
   'BINARY'),
  ('ucrtbase.dll', 'C:\\WINDOWS\\system32\\ucrtbase.dll', 'BINARY'),
  ('api-ms-win-crt-process-l1-1-0.dll',
   'C:\\WINDOWS\\system32\\api-ms-win-crt-process-l1-1-0.dll',
   'BINARY'),
  ('api-ms-win-crt-filesystem-l1-1-0.dll',
   'C:\\WINDOWS\\system32\\api-ms-win-crt-filesystem-l1-1-0.dll',
   'BINARY'),
  ('api-ms-win-crt-time-l1-1-0.dll',
   'C:\\WINDOWS\\system32\\api-ms-win-crt-time-l1-1-0.dll',
   'BINARY'),
  ('api-ms-win-crt-convert-l1-1-0.dll',
   'C:\\WINDOWS\\system32\\api-ms-win-crt-convert-l1-1-0.dll',
   'BINARY'),
  ('api-ms-win-crt-string-l1-1-0.dll',
   'C:\\WINDOWS\\system32\\api-ms-win-crt-string-l1-1-0.dll',
   'BINARY'),
  ('api-ms-win-crt-conio-l1-1-0.dll',
   'C:\\WINDOWS\\system32\\api-ms-win-crt-conio-l1-1-0.dll',
   'BINARY'),
  ('api-ms-win-crt-environment-l1-1-0.dll',
   'C:\\WINDOWS\\system32\\api-ms-win-crt-environment-l1-1-0.dll',
   'BINARY'),
  ('api-ms-win-core-sysinfo-l1-1-0.dll',
   'C:\\WINDOWS\\system32\\api-ms-win-core-sysinfo-l1-1-0.dll',
   'BINARY'),
  ('api-ms-win-core-processthreads-l1-1-0.dll',
   'C:\\WINDOWS\\system32\\api-ms-win-core-processthreads-l1-1-0.dll',
   'BINARY'),
  ('api-ms-win-core-util-l1-1-0.dll',
   'C:\\WINDOWS\\system32\\api-ms-win-core-util-l1-1-0.dll',
   'BINARY'),
  ('api-ms-win-core-file-l1-2-0.dll',
   'C:\\WINDOWS\\system32\\api-ms-win-core-file-l1-2-0.dll',
   'BINARY'),
  ('api-ms-win-core-debug-l1-1-0.dll',
   'C:\\WINDOWS\\system32\\api-ms-win-core-debug-l1-1-0.dll',
   'BINARY'),
  ('api-ms-win-core-string-l1-1-0.dll',
   'C:\\WINDOWS\\system32\\api-ms-win-core-string-l1-1-0.dll',
   'BINARY'),
  ('api-ms-win-core-profile-l1-1-0.dll',
   'C:\\WINDOWS\\system32\\api-ms-win-core-profile-l1-1-0.dll',
   'BINARY'),
  ('api-ms-win-core-handle-l1-1-0.dll',
   'C:\\WINDOWS\\system32\\api-ms-win-core-handle-l1-1-0.dll',
   'BINARY'),
  ('api-ms-win-core-processthreads-l1-1-1.dll',
   'C:\\WINDOWS\\system32\\api-ms-win-core-processthreads-l1-1-1.dll',
   'BINARY'),
  ('api-ms-win-core-rtlsupport-l1-1-0.dll',
   'C:\\WINDOWS\\system32\\api-ms-win-core-rtlsupport-l1-1-0.dll',
   'BINARY'),
  ('api-ms-win-core-synch-l1-1-0.dll',
   'C:\\WINDOWS\\system32\\api-ms-win-core-synch-l1-1-0.dll',
   'BINARY'),
  ('api-ms-win-core-heap-l1-1-0.dll',
   'C:\\WINDOWS\\system32\\api-ms-win-core-heap-l1-1-0.dll',
   'BINARY'),
  ('api-ms-win-core-errorhandling-l1-1-0.dll',
   'C:\\WINDOWS\\system32\\api-ms-win-core-errorhandling-l1-1-0.dll',
   'BINARY'),
  ('api-ms-win-core-console-l1-1-0.dll',
   'C:\\WINDOWS\\system32\\api-ms-win-core-console-l1-1-0.dll',
   'BINARY'),
  ('api-ms-win-core-memory-l1-1-0.dll',
   'C:\\WINDOWS\\system32\\api-ms-win-core-memory-l1-1-0.dll',
   'BINARY'),
  ('api-ms-win-core-datetime-l1-1-0.dll',
   'C:\\WINDOWS\\system32\\api-ms-win-core-datetime-l1-1-0.dll',
   'BINARY'),
  ('api-ms-win-core-libraryloader-l1-1-0.dll',
   'C:\\WINDOWS\\system32\\api-ms-win-core-libraryloader-l1-1-0.dll',
   'BINARY'),
  ('api-ms-win-core-localization-l1-2-0.dll',
   'C:\\WINDOWS\\system32\\api-ms-win-core-localization-l1-2-0.dll',
   'BINARY'),
  ('api-ms-win-core-file-l2-1-0.dll',
   'C:\\WINDOWS\\system32\\api-ms-win-core-file-l2-1-0.dll',
   'BINARY'),
  ('api-ms-win-core-processenvironment-l1-1-0.dll',
   'C:\\WINDOWS\\system32\\api-ms-win-core-processenvironment-l1-1-0.dll',
   'BINARY'),
  ('api-ms-win-core-synch-l1-2-0.dll',
   'C:\\WINDOWS\\system32\\api-ms-win-core-synch-l1-2-0.dll',
   'BINARY'),
  ('api-ms-win-core-interlocked-l1-1-0.dll',
   'C:\\WINDOWS\\system32\\api-ms-win-core-interlocked-l1-1-0.dll',
   'BINARY'),
  ('api-ms-win-core-file-l1-1-0.dll',
   'C:\\WINDOWS\\system32\\api-ms-win-core-file-l1-1-0.dll',
   'BINARY'),
  ('api-ms-win-core-timezone-l1-1-0.dll',
   'C:\\WINDOWS\\system32\\api-ms-win-core-timezone-l1-1-0.dll',
   'BINARY'),
  ('api-ms-win-core-namedpipe-l1-1-0.dll',
   'C:\\WINDOWS\\system32\\api-ms-win-core-namedpipe-l1-1-0.dll',
   'BINARY'),
  ('pythoncom35.dll',
   'C:\\Users\\Destiny\\AppData\\Local\\Programs\\Python\\Python35\\lib\\site-packages\\pypiwin32_system32\\pythoncom35.dll',
   'BINARY'),
  ('pywintypes35.dll',
   'C:\\Users\\Destiny\\AppData\\Local\\Programs\\Python\\Python35\\lib\\site-packages\\pypiwin32_system32\\pywintypes35.dll',
   'BINARY'),
  ('win32trace',
   'C:\\Users\\Destiny\\AppData\\Local\\Programs\\Python\\Python35\\lib\\site-packages\\win32\\win32trace.pyd',
   'EXTENSION'),
  ('win32ui',
   'C:\\Users\\Destiny\\AppData\\Local\\Programs\\Python\\Python35\\lib\\site-packages\\Pythonwin\\win32ui.pyd',
   'EXTENSION'),
  ('_win32sysloader',
   'C:\\Users\\Destiny\\AppData\\Local\\Programs\\Python\\Python35\\lib\\site-packages\\win32\\_win32sysloader.pyd',
   'EXTENSION'),
  ('win32api',
   'C:\\Users\\Destiny\\AppData\\Local\\Programs\\Python\\Python35\\lib\\site-packages\\win32\\win32api.pyd',
   'EXTENSION'),
  ('_multiprocessing',
   'C:\\Users\\Destiny\\AppData\\Local\\Programs\\Python\\Python35\\DLLs\\_multiprocessing.pyd',
   'EXTENSION'),
  ('_ctypes',
   'C:\\Users\\Destiny\\AppData\\Local\\Programs\\Python\\Python35\\DLLs\\_ctypes.pyd',
   'EXTENSION'),
  ('win32com.shell.shell',
   'C:\\Users\\Destiny\\AppData\\Local\\Programs\\Python\\Python35\\lib\\site-packages\\win32comext\\shell\\shell.pyd',
   'EXTENSION'),
  ('win32wnet',
   'C:\\Users\\Destiny\\AppData\\Local\\Programs\\Python\\Python35\\lib\\site-packages\\win32\\win32wnet.pyd',
   'EXTENSION'),
  ('_ssl',
   'C:\\Users\\Destiny\\AppData\\Local\\Programs\\Python\\Python35\\DLLs\\_ssl.pyd',
   'EXTENSION'),
  ('unicodedata',
   'C:\\Users\\Destiny\\AppData\\Local\\Programs\\Python\\Python35\\DLLs\\unicodedata.pyd',
   'EXTENSION'),
  ('pyexpat',
   'C:\\Users\\Destiny\\AppData\\Local\\Programs\\Python\\Python35\\DLLs\\pyexpat.pyd',
   'EXTENSION'),
  ('_hashlib',
   'C:\\Users\\Destiny\\AppData\\Local\\Programs\\Python\\Python35\\DLLs\\_hashlib.pyd',
   'EXTENSION'),
  ('_bz2',
   'C:\\Users\\Destiny\\AppData\\Local\\Programs\\Python\\Python35\\DLLs\\_bz2.pyd',
   'EXTENSION'),
  ('_lzma',
   'C:\\Users\\Destiny\\AppData\\Local\\Programs\\Python\\Python35\\DLLs\\_lzma.pyd',
   'EXTENSION'),
  ('_socket',
   'C:\\Users\\Destiny\\AppData\\Local\\Programs\\Python\\Python35\\DLLs\\_socket.pyd',
   'EXTENSION'),
  ('select',
   'C:\\Users\\Destiny\\AppData\\Local\\Programs\\Python\\Python35\\DLLs\\select.pyd',
   'EXTENSION'),
  ('kivy.lib.gstplayer._gstplayer',
   'C:\\Users\\Destiny\\AppData\\Local\\Programs\\Python\\Python35\\lib\\site-packages\\kivy\\lib\\gstplayer\\_gstplayer.cp35-win_amd64.pyd',
   'EXTENSION'),
  ('kivy.graphics.vertex',
   'C:\\Users\\Destiny\\AppData\\Local\\Programs\\Python\\Python35\\lib\\site-packages\\kivy\\graphics\\vertex.cp35-win_amd64.pyd',
   'EXTENSION'),
  ('kivy._event',
   'C:\\Users\\Destiny\\AppData\\Local\\Programs\\Python\\Python35\\lib\\site-packages\\kivy\\_event.cp35-win_amd64.pyd',
   'EXTENSION'),
  ('_decimal',
   'C:\\Users\\Destiny\\AppData\\Local\\Programs\\Python\\Python35\\DLLs\\_decimal.pyd',
   'EXTENSION'),
  ('kivy.graphics.cgl_backend.cgl_mock',
   'C:\\Users\\Destiny\\AppData\\Local\\Programs\\Python\\Python35\\lib\\site-packages\\kivy\\graphics\\cgl_backend\\cgl_mock.cp35-win_amd64.pyd',
   'EXTENSION'),
  ('kivy.graphics.svg',
   'C:\\Users\\Destiny\\AppData\\Local\\Programs\\Python\\Python35\\lib\\site-packages\\kivy\\graphics\\svg.cp35-win_amd64.pyd',
   'EXTENSION'),
  ('kivy.graphics.tesselator',
   'C:\\Users\\Destiny\\AppData\\Local\\Programs\\Python\\Python35\\lib\\site-packages\\kivy\\graphics\\tesselator.cp35-win_amd64.pyd',
   'EXTENSION'),
  ('kivy.graphics.cgl_backend.cgl_gl',
   'C:\\Users\\Destiny\\AppData\\Local\\Programs\\Python\\Python35\\lib\\site-packages\\kivy\\graphics\\cgl_backend\\cgl_gl.cp35-win_amd64.pyd',
   'EXTENSION'),
  ('kivy._clock',
   'C:\\Users\\Destiny\\AppData\\Local\\Programs\\Python\\Python35\\lib\\site-packages\\kivy\\_clock.cp35-win_amd64.pyd',
   'EXTENSION'),
  ('kivy.graphics.shader',
   'C:\\Users\\Destiny\\AppData\\Local\\Programs\\Python\\Python35\\lib\\site-packages\\kivy\\graphics\\shader.cp35-win_amd64.pyd',
   'EXTENSION'),
  ('_elementtree',
   'C:\\Users\\Destiny\\AppData\\Local\\Programs\\Python\\Python35\\DLLs\\_elementtree.pyd',
   'EXTENSION'),
  ('kivy.graphics.transformation',
   'C:\\Users\\Destiny\\AppData\\Local\\Programs\\Python\\Python35\\lib\\site-packages\\kivy\\graphics\\transformation.cp35-win_amd64.pyd',
   'EXTENSION'),
  ('kivy.core.text.text_layout',
   'C:\\Users\\Destiny\\AppData\\Local\\Programs\\Python\\Python35\\lib\\site-packages\\kivy\\core\\text\\text_layout.cp35-win_amd64.pyd',
   'EXTENSION'),
  ('win32file',
   'C:\\Users\\Destiny\\AppData\\Local\\Programs\\Python\\Python35\\lib\\site-packages\\win32\\win32file.pyd',
   'EXTENSION'),
  ('kivy.graphics.scissor_instructions',
   'C:\\Users\\Destiny\\AppData\\Local\\Programs\\Python\\Python35\\lib\\site-packages\\kivy\\graphics\\scissor_instructions.cp35-win_amd64.pyd',
   'EXTENSION'),
  ('kivy.graphics.cgl_backend.cgl_glew',
   'C:\\Users\\Destiny\\AppData\\Local\\Programs\\Python\\Python35\\lib\\site-packages\\kivy\\graphics\\cgl_backend\\cgl_glew.cp35-win_amd64.pyd',
   'EXTENSION'),
  ('kivy.graphics.cgl',
   'C:\\Users\\Destiny\\AppData\\Local\\Programs\\Python\\Python35\\lib\\site-packages\\kivy\\graphics\\cgl.cp35-win_amd64.pyd',
   'EXTENSION'),
  ('kivy.core.window._window_sdl2',
   'C:\\Users\\Destiny\\AppData\\Local\\Programs\\Python\\Python35\\lib\\site-packages\\kivy\\core\\window\\_window_sdl2.cp35-win_amd64.pyd',
   'EXTENSION'),
  ('kivy.graphics.buffer',
   'C:\\Users\\Destiny\\AppData\\Local\\Programs\\Python\\Python35\\lib\\site-packages\\kivy\\graphics\\buffer.cp35-win_amd64.pyd',
   'EXTENSION'),
  ('kivy.graphics.opengl',
   'C:\\Users\\Destiny\\AppData\\Local\\Programs\\Python\\Python35\\lib\\site-packages\\kivy\\graphics\\opengl.cp35-win_amd64.pyd',
   'EXTENSION'),
  ('kivy.graphics.compiler',
   'C:\\Users\\Destiny\\AppData\\Local\\Programs\\Python\\Python35\\lib\\site-packages\\kivy\\graphics\\compiler.cp35-win_amd64.pyd',
   'EXTENSION'),
  ('kivy.core.text._text_sdl2',
   'C:\\Users\\Destiny\\AppData\\Local\\Programs\\Python\\Python35\\lib\\site-packages\\kivy\\core\\text\\_text_sdl2.cp35-win_amd64.pyd',
   'EXTENSION'),
  ('kivy.core.image._img_sdl2',
   'C:\\Users\\Destiny\\AppData\\Local\\Programs\\Python\\Python35\\lib\\site-packages\\kivy\\core\\image\\_img_sdl2.cp35-win_amd64.pyd',
   'EXTENSION'),
  ('kivy.weakproxy',
   'C:\\Users\\Destiny\\AppData\\Local\\Programs\\Python\\Python35\\lib\\site-packages\\kivy\\weakproxy.cp35-win_amd64.pyd',
   'EXTENSION'),
  ('kivy.graphics.instructions',
   'C:\\Users\\Destiny\\AppData\\Local\\Programs\\Python\\Python35\\lib\\site-packages\\kivy\\graphics\\instructions.cp35-win_amd64.pyd',
   'EXTENSION'),
  ('kivy.graphics.texture',
   'C:\\Users\\Destiny\\AppData\\Local\\Programs\\Python\\Python35\\lib\\site-packages\\kivy\\graphics\\texture.cp35-win_amd64.pyd',
   'EXTENSION'),
  ('kivy.graphics.vbo',
   'C:\\Users\\Destiny\\AppData\\Local\\Programs\\Python\\Python35\\lib\\site-packages\\kivy\\graphics\\vbo.cp35-win_amd64.pyd',
   'EXTENSION'),
  ('kivy.graphics.opengl_utils',
   'C:\\Users\\Destiny\\AppData\\Local\\Programs\\Python\\Python35\\lib\\site-packages\\kivy\\graphics\\opengl_utils.cp35-win_amd64.pyd',
   'EXTENSION'),
  ('kivy.core.audio.audio_sdl2',
   'C:\\Users\\Destiny\\AppData\\Local\\Programs\\Python\\Python35\\lib\\site-packages\\kivy\\core\\audio\\audio_sdl2.cp35-win_amd64.pyd',
   'EXTENSION'),
  ('kivy.graphics.fbo',
   'C:\\Users\\Destiny\\AppData\\Local\\Programs\\Python\\Python35\\lib\\site-packages\\kivy\\graphics\\fbo.cp35-win_amd64.pyd',
   'EXTENSION'),
  ('kivy.graphics.gl_instructions',
   'C:\\Users\\Destiny\\AppData\\Local\\Programs\\Python\\Python35\\lib\\site-packages\\kivy\\graphics\\gl_instructions.cp35-win_amd64.pyd',
   'EXTENSION'),
  ('kivy.graphics.context',
   'C:\\Users\\Destiny\\AppData\\Local\\Programs\\Python\\Python35\\lib\\site-packages\\kivy\\graphics\\context.cp35-win_amd64.pyd',
   'EXTENSION'),
  ('kivy.graphics.vertex_instructions',
   'C:\\Users\\Destiny\\AppData\\Local\\Programs\\Python\\Python35\\lib\\site-packages\\kivy\\graphics\\vertex_instructions.cp35-win_amd64.pyd',
   'EXTENSION'),
  ('win32gui',
   'C:\\Users\\Destiny\\AppData\\Local\\Programs\\Python\\Python35\\lib\\site-packages\\win32\\win32gui.pyd',
   'EXTENSION'),
  ('kivy.graphics.context_instructions',
   'C:\\Users\\Destiny\\AppData\\Local\\Programs\\Python\\Python35\\lib\\site-packages\\kivy\\graphics\\context_instructions.cp35-win_amd64.pyd',
   'EXTENSION'),
  ('kivy.core.clipboard._clipboard_sdl2',
   'C:\\Users\\Destiny\\AppData\\Local\\Programs\\Python\\Python35\\lib\\site-packages\\kivy\\core\\clipboard\\_clipboard_sdl2.cp35-win_amd64.pyd',
   'EXTENSION'),
  ('kivy.graphics.cgl_backend.cgl_debug',
   'C:\\Users\\Destiny\\AppData\\Local\\Programs\\Python\\Python35\\lib\\site-packages\\kivy\\graphics\\cgl_backend\\cgl_debug.cp35-win_amd64.pyd',
   'EXTENSION'),
  ('kivy.graphics.stencil_instructions',
   'C:\\Users\\Destiny\\AppData\\Local\\Programs\\Python\\Python35\\lib\\site-packages\\kivy\\graphics\\stencil_instructions.cp35-win_amd64.pyd',
   'EXTENSION'),
  ('kivy.graphics.cgl_backend.cgl_sdl2',
   'C:\\Users\\Destiny\\AppData\\Local\\Programs\\Python\\Python35\\lib\\site-packages\\kivy\\graphics\\cgl_backend\\cgl_sdl2.cp35-win_amd64.pyd',
   'EXTENSION'),
  ('kivy.properties',
   'C:\\Users\\Destiny\\AppData\\Local\\Programs\\Python\\Python35\\lib\\site-packages\\kivy\\properties.cp35-win_amd64.pyd',
   'EXTENSION'),
  ('_portaudio',
   'C:\\Users\\Destiny\\AppData\\Local\\Programs\\Python\\Python35\\lib\\site-packages\\_portaudio.cp35-win_amd64.pyd',
   'EXTENSION'),
  ('MSVCR100.dll', 'C:\\WINDOWS\\system32\\msvcr100.dll', 'BINARY'),
  ('mfc100u.dll',
   'C:\\Users\\Destiny\\AppData\\Local\\Programs\\Python\\Python35\\lib\\site-packages\\Pythonwin\\mfc100u.dll',
   'BINARY'),
  ('api-ms-win-crt-utility-l1-1-0.dll',
   'C:\\WINDOWS\\system32\\api-ms-win-crt-utility-l1-1-0.dll',
   'BINARY'),
  ('glew32.dll',
   'C:\\Users\\Destiny\\AppData\\Local\\Programs\\Python\\Python35\\share\\glew\\bin\\glew32.dll',
   'BINARY'),
  ('SDL2.dll',
   'C:\\Users\\Destiny\\AppData\\Local\\Programs\\Python\\Python35\\share\\sdl2\\bin\\sdl2.dll',
   'BINARY'),
  ('SDL2_image.dll',
   'C:\\Users\\Destiny\\AppData\\Local\\Programs\\Python\\Python35\\share\\sdl2\\bin\\sdl2_image.dll',
   'BINARY'),
  ('SDL2_ttf.dll',
   'C:\\Users\\Destiny\\AppData\\Local\\Programs\\Python\\Python35\\share\\sdl2\\bin\\sdl2_ttf.dll',
   'BINARY'),
  ('SDL2_mixer.dll',
   'C:\\Users\\Destiny\\AppData\\Local\\Programs\\Python\\Python35\\share\\sdl2\\bin\\sdl2_mixer.dll',
   'BINARY'),
  ('libfreetype-6.dll',
   'C:\\Users\\Destiny\\AppData\\Local\\Programs\\Python\\Python35\\share\\sdl2\\bin\\libfreetype-6.dll',
   'BINARY'),
  ('zlib1.dll',
   'C:\\Users\\Destiny\\AppData\\Local\\Programs\\Python\\Python35\\share\\sdl2\\bin\\zlib1.dll',
   'BINARY'),
  ('base_library.zip',
   'C:\\Users\\Destiny\\Documents\\caldwell-reading-software\\CRS1\\build\\CRS\\base_library.zip',
   'DATA'),
  ('docutils\\writers\\s5_html\\themes\\default\\opera.css',
   'C:\\Users\\Destiny\\AppData\\Local\\Programs\\Python\\Python35\\lib\\site-packages\\docutils\\writers\\s5_html\\themes\\default\\opera.css',
   'DATA'),
  ('docutils\\parsers\\rst\\include\\isomfrk-wide.txt',
   'C:\\Users\\Destiny\\AppData\\Local\\Programs\\Python\\Python35\\lib\\site-packages\\docutils\\parsers\\rst\\include\\isomfrk-wide.txt',
   'DATA'),
  ('kivy_install\\data\\settings_kivy.json',
   'C:\\Users\\Destiny\\AppData\\Local\\Programs\\Python\\Python35\\lib\\site-packages\\kivy\\data\\settings_kivy.json',
   'DATA'),
  ('kivy_install\\modules\\_webdebugger.py',
   'C:\\Users\\Destiny\\AppData\\Local\\Programs\\Python\\Python35\\lib\\site-packages\\kivy\\modules\\_webdebugger.py',
   'DATA'),
  ('kivy_install\\modules\\keybinding.py',
   'C:\\Users\\Destiny\\AppData\\Local\\Programs\\Python\\Python35\\lib\\site-packages\\kivy\\modules\\keybinding.py',
   'DATA'),
  ('docutils\\parsers\\rst\\include\\mmlextra.txt',
   'C:\\Users\\Destiny\\AppData\\Local\\Programs\\Python\\Python35\\lib\\site-packages\\docutils\\parsers\\rst\\include\\mmlextra.txt',
   'DATA'),
  ('docutils\\parsers\\rst\\include\\xhtml1-symbol.txt',
   'C:\\Users\\Destiny\\AppData\\Local\\Programs\\Python\\Python35\\lib\\site-packages\\docutils\\parsers\\rst\\include\\xhtml1-symbol.txt',
   'DATA'),
  ('kivy_install\\data\\style.kv',
   'C:\\Users\\Destiny\\AppData\\Local\\Programs\\Python\\Python35\\lib\\site-packages\\kivy\\data\\style.kv',
   'DATA'),
  ('kivy_install\\data\\logo\\kivy-icon-16.png',
   'C:\\Users\\Destiny\\AppData\\Local\\Programs\\Python\\Python35\\lib\\site-packages\\kivy\\data\\logo\\kivy-icon-16.png',
   'DATA'),
  ('kivy_install\\data\\keyboards\\en_US.json',
   'C:\\Users\\Destiny\\AppData\\Local\\Programs\\Python\\Python35\\lib\\site-packages\\kivy\\data\\keyboards\\en_US.json',
   'DATA'),
  ('kivy_install\\data\\fonts\\Roboto-Regular.ttf',
   'C:\\Users\\Destiny\\AppData\\Local\\Programs\\Python\\Python35\\lib\\site-packages\\kivy\\data\\fonts\\Roboto-Regular.ttf',
   'DATA'),
  ('docutils\\writers\\s5_html\\themes\\default\\s5-core.css',
   'C:\\Users\\Destiny\\AppData\\Local\\Programs\\Python\\Python35\\lib\\site-packages\\docutils\\writers\\s5_html\\themes\\default\\s5-core.css',
   'DATA'),
  ('kivy_install\\data\\keyboards\\fr_CH.json',
   'C:\\Users\\Destiny\\AppData\\Local\\Programs\\Python\\Python35\\lib\\site-packages\\kivy\\data\\keyboards\\fr_CH.json',
   'DATA'),
  ('docutils\\parsers\\rst\\include\\isolat1.txt',
   'C:\\Users\\Destiny\\AppData\\Local\\Programs\\Python\\Python35\\lib\\site-packages\\docutils\\parsers\\rst\\include\\isolat1.txt',
   'DATA'),
  ('docutils\\parsers\\rst\\include\\isomopf-wide.txt',
   'C:\\Users\\Destiny\\AppData\\Local\\Programs\\Python\\Python35\\lib\\site-packages\\docutils\\parsers\\rst\\include\\isomopf-wide.txt',
   'DATA'),
  ('kivy_install\\modules\\console.py',
   'C:\\Users\\Destiny\\AppData\\Local\\Programs\\Python\\Python35\\lib\\site-packages\\kivy\\modules\\console.py',
   'DATA'),
  ('docutils\\writers\\latex2e\\titlepage.tex',
   'C:\\Users\\Destiny\\AppData\\Local\\Programs\\Python\\Python35\\lib\\site-packages\\docutils\\writers\\latex2e\\titlepage.tex',
   'DATA'),
  ('docutils\\parsers\\rst\\include\\isogrk4-wide.txt',
   'C:\\Users\\Destiny\\AppData\\Local\\Programs\\Python\\Python35\\lib\\site-packages\\docutils\\parsers\\rst\\include\\isogrk4-wide.txt',
   'DATA'),
  ('docutils\\parsers\\rst\\include\\isopub.txt',
   'C:\\Users\\Destiny\\AppData\\Local\\Programs\\Python\\Python35\\lib\\site-packages\\docutils\\parsers\\rst\\include\\isopub.txt',
   'DATA'),
  ('kivy_install\\data\\keyboards\\qwertz.json',
   'C:\\Users\\Destiny\\AppData\\Local\\Programs\\Python\\Python35\\lib\\site-packages\\kivy\\data\\keyboards\\qwertz.json',
   'DATA'),
  ('kivy_install\\data\\logo\\kivy-icon-512.png',
   'C:\\Users\\Destiny\\AppData\\Local\\Programs\\Python\\Python35\\lib\\site-packages\\kivy\\data\\logo\\kivy-icon-512.png',
   'DATA'),
  ('docutils\\parsers\\rst\\include\\isomscr.txt',
   'C:\\Users\\Destiny\\AppData\\Local\\Programs\\Python\\Python35\\lib\\site-packages\\docutils\\parsers\\rst\\include\\isomscr.txt',
   'DATA'),
  ('kivy_install\\modules\\inspector.py',
   'C:\\Users\\Destiny\\AppData\\Local\\Programs\\Python\\Python35\\lib\\site-packages\\kivy\\modules\\inspector.py',
   'DATA'),
  ('docutils\\parsers\\rst\\include\\isotech.txt',
   'C:\\Users\\Destiny\\AppData\\Local\\Programs\\Python\\Python35\\lib\\site-packages\\docutils\\parsers\\rst\\include\\isotech.txt',
   'DATA'),
  ('docutils\\parsers\\rst\\include\\s5defs.txt',
   'C:\\Users\\Destiny\\AppData\\Local\\Programs\\Python\\Python35\\lib\\site-packages\\docutils\\parsers\\rst\\include\\s5defs.txt',
   'DATA'),
  ('docutils\\writers\\s5_html\\themes\\default\\slides.js',
   'C:\\Users\\Destiny\\AppData\\Local\\Programs\\Python\\Python35\\lib\\site-packages\\docutils\\writers\\s5_html\\themes\\default\\slides.js',
   'DATA'),
  ('kivy_install\\modules\\screen.py',
   'C:\\Users\\Destiny\\AppData\\Local\\Programs\\Python\\Python35\\lib\\site-packages\\kivy\\modules\\screen.py',
   'DATA'),
  ('docutils\\writers\\html5_polyglot\\minimal.css',
   'C:\\Users\\Destiny\\AppData\\Local\\Programs\\Python\\Python35\\lib\\site-packages\\docutils\\writers\\html5_polyglot\\minimal.css',
   'DATA'),
  ('kivy_install\\data\\images\\cursor.png',
   'C:\\Users\\Destiny\\AppData\\Local\\Programs\\Python\\Python35\\lib\\site-packages\\kivy\\data\\images\\cursor.png',
   'DATA'),
  ('kivy_install\\data\\logo\\kivy-icon-32.png',
   'C:\\Users\\Destiny\\AppData\\Local\\Programs\\Python\\Python35\\lib\\site-packages\\kivy\\data\\logo\\kivy-icon-32.png',
   'DATA'),
  ('kivy_install\\data\\glsl\\default.vs',
   'C:\\Users\\Destiny\\AppData\\Local\\Programs\\Python\\Python35\\lib\\site-packages\\kivy\\data\\glsl\\default.vs',
   'DATA'),
  ('docutils\\writers\\s5_html\\themes\\README.txt',
   'C:\\Users\\Destiny\\AppData\\Local\\Programs\\Python\\Python35\\lib\\site-packages\\docutils\\writers\\s5_html\\themes\\README.txt',
   'DATA'),
  ('docutils\\writers\\s5_html\\themes\\small-black\\pretty.css',
   'C:\\Users\\Destiny\\AppData\\Local\\Programs\\Python\\Python35\\lib\\site-packages\\docutils\\writers\\s5_html\\themes\\small-black\\pretty.css',
   'DATA'),
  ('docutils\\parsers\\rst\\include\\isomscr-wide.txt',
   'C:\\Users\\Destiny\\AppData\\Local\\Programs\\Python\\Python35\\lib\\site-packages\\docutils\\parsers\\rst\\include\\isomscr-wide.txt',
   'DATA'),
  ('docutils\\parsers\\rst\\include\\xhtml1-lat1.txt',
   'C:\\Users\\Destiny\\AppData\\Local\\Programs\\Python\\Python35\\lib\\site-packages\\docutils\\parsers\\rst\\include\\xhtml1-lat1.txt',
   'DATA'),
  ('docutils\\writers\\pep_html\\pep.css',
   'C:\\Users\\Destiny\\AppData\\Local\\Programs\\Python\\Python35\\lib\\site-packages\\docutils\\writers\\pep_html\\pep.css',
   'DATA'),
  ('docutils\\parsers\\rst\\include\\isoamsr.txt',
   'C:\\Users\\Destiny\\AppData\\Local\\Programs\\Python\\Python35\\lib\\site-packages\\docutils\\parsers\\rst\\include\\isoamsr.txt',
   'DATA'),
  ('docutils\\parsers\\rst\\include\\isomfrk.txt',
   'C:\\Users\\Destiny\\AppData\\Local\\Programs\\Python\\Python35\\lib\\site-packages\\docutils\\parsers\\rst\\include\\isomfrk.txt',
   'DATA'),
  ('lib2to3\\PatternGrammar3.5.3.final.0.pickle',
   'C:\\Users\\Destiny\\AppData\\Local\\Programs\\Python\\Python35\\lib\\lib2to3\\PatternGrammar3.5.3.final.0.pickle',
   'DATA'),
  ('docutils\\writers\\s5_html\\themes\\default\\outline.css',
   'C:\\Users\\Destiny\\AppData\\Local\\Programs\\Python\\Python35\\lib\\site-packages\\docutils\\writers\\s5_html\\themes\\default\\outline.css',
   'DATA'),
  ('docutils\\writers\\s5_html\\themes\\big-black\\pretty.css',
   'C:\\Users\\Destiny\\AppData\\Local\\Programs\\Python\\Python35\\lib\\site-packages\\docutils\\writers\\s5_html\\themes\\big-black\\pretty.css',
   'DATA'),
  ('docutils\\parsers\\rst\\include\\README.txt',
   'C:\\Users\\Destiny\\AppData\\Local\\Programs\\Python\\Python35\\lib\\site-packages\\docutils\\parsers\\rst\\include\\README.txt',
   'DATA'),
  ('docutils\\writers\\latex2e\\xelatex.tex',
   'C:\\Users\\Destiny\\AppData\\Local\\Programs\\Python\\Python35\\lib\\site-packages\\docutils\\writers\\latex2e\\xelatex.tex',
   'DATA'),
  ('kivy_install\\modules\\monitor.py',
   'C:\\Users\\Destiny\\AppData\\Local\\Programs\\Python\\Python35\\lib\\site-packages\\kivy\\modules\\monitor.py',
   'DATA'),
  ('lib2to3\\tests\\data\\README',
   'C:\\Users\\Destiny\\AppData\\Local\\Programs\\Python\\Python35\\lib\\lib2to3\\tests\\data\\README',
   'DATA'),
  ('docutils\\parsers\\rst\\include\\mmlextra-wide.txt',
   'C:\\Users\\Destiny\\AppData\\Local\\Programs\\Python\\Python35\\lib\\site-packages\\docutils\\parsers\\rst\\include\\mmlextra-wide.txt',
   'DATA'),
  ('kivy_install\\data\\fonts\\DejaVuSans.ttf',
   'C:\\Users\\Destiny\\AppData\\Local\\Programs\\Python\\Python35\\lib\\site-packages\\kivy\\data\\fonts\\DejaVuSans.ttf',
   'DATA'),
  ('docutils\\writers\\s5_html\\themes\\default\\framing.css',
   'C:\\Users\\Destiny\\AppData\\Local\\Programs\\Python\\Python35\\lib\\site-packages\\docutils\\writers\\s5_html\\themes\\default\\framing.css',
   'DATA'),
  ('docutils\\writers\\html4css1\\template.txt',
   'C:\\Users\\Destiny\\AppData\\Local\\Programs\\Python\\Python35\\lib\\site-packages\\docutils\\writers\\html4css1\\template.txt',
   'DATA'),
  ('kivy_install\\modules\\__pycache__\\console.cpython-35.pyc',
   'C:\\Users\\Destiny\\AppData\\Local\\Programs\\Python\\Python35\\lib\\site-packages\\kivy\\modules\\__pycache__\\console.cpython-35.pyc',
   'DATA'),
  ('kivy_install\\modules\\__pycache__\\_webdebugger.cpython-35.pyc',
   'C:\\Users\\Destiny\\AppData\\Local\\Programs\\Python\\Python35\\lib\\site-packages\\kivy\\modules\\__pycache__\\_webdebugger.cpython-35.pyc',
   'DATA'),
  ('docutils\\writers\\s5_html\\themes\\small-white\\framing.css',
   'C:\\Users\\Destiny\\AppData\\Local\\Programs\\Python\\Python35\\lib\\site-packages\\docutils\\writers\\s5_html\\themes\\small-white\\framing.css',
   'DATA'),
  ('docutils\\writers\\s5_html\\themes\\default\\slides.css',
   'C:\\Users\\Destiny\\AppData\\Local\\Programs\\Python\\Python35\\lib\\site-packages\\docutils\\writers\\s5_html\\themes\\default\\slides.css',
   'DATA'),
  ('kivy_install\\modules\\__pycache__\\__init__.cpython-35.pyc',
   'C:\\Users\\Destiny\\AppData\\Local\\Programs\\Python\\Python35\\lib\\site-packages\\kivy\\modules\\__pycache__\\__init__.cpython-35.pyc',
   'DATA'),
  ('lib2to3\\Grammar3.5.3.final.0.pickle',
   'C:\\Users\\Destiny\\AppData\\Local\\Programs\\Python\\Python35\\lib\\lib2to3\\Grammar3.5.3.final.0.pickle',
   'DATA'),
  ('kivy_install\\data\\logo\\kivy-icon-24.png',
   'C:\\Users\\Destiny\\AppData\\Local\\Programs\\Python\\Python35\\lib\\site-packages\\kivy\\data\\logo\\kivy-icon-24.png',
   'DATA'),
  ('docutils\\parsers\\rst\\include\\isoamsn.txt',
   'C:\\Users\\Destiny\\AppData\\Local\\Programs\\Python\\Python35\\lib\\site-packages\\docutils\\parsers\\rst\\include\\isoamsn.txt',
   'DATA'),
  ('docutils\\writers\\s5_html\\themes\\big-white\\pretty.css',
   'C:\\Users\\Destiny\\AppData\\Local\\Programs\\Python\\Python35\\lib\\site-packages\\docutils\\writers\\s5_html\\themes\\big-white\\pretty.css',
   'DATA'),
  ('docutils\\parsers\\rst\\include\\isoamso.txt',
   'C:\\Users\\Destiny\\AppData\\Local\\Programs\\Python\\Python35\\lib\\site-packages\\docutils\\parsers\\rst\\include\\isoamso.txt',
   'DATA'),
  ('kivy_install\\data\\glsl\\default.png',
   'C:\\Users\\Destiny\\AppData\\Local\\Programs\\Python\\Python35\\lib\\site-packages\\kivy\\data\\glsl\\default.png',
   'DATA'),
  ('kivy_install\\data\\glsl\\header.fs',
   'C:\\Users\\Destiny\\AppData\\Local\\Programs\\Python\\Python35\\lib\\site-packages\\kivy\\data\\glsl\\header.fs',
   'DATA'),
  ('kivy_install\\data\\glsl\\header.vs',
   'C:\\Users\\Destiny\\AppData\\Local\\Programs\\Python\\Python35\\lib\\site-packages\\kivy\\data\\glsl\\header.vs',
   'DATA'),
  ('docutils\\parsers\\rst\\include\\isobox.txt',
   'C:\\Users\\Destiny\\AppData\\Local\\Programs\\Python\\Python35\\lib\\site-packages\\docutils\\parsers\\rst\\include\\isobox.txt',
   'DATA'),
  ('kivy_install\\data\\logo\\kivy-icon-48.png',
   'C:\\Users\\Destiny\\AppData\\Local\\Programs\\Python\\Python35\\lib\\site-packages\\kivy\\data\\logo\\kivy-icon-48.png',
   'DATA'),
  ('docutils\\writers\\s5_html\\themes\\medium-white\\pretty.css',
   'C:\\Users\\Destiny\\AppData\\Local\\Programs\\Python\\Python35\\lib\\site-packages\\docutils\\writers\\s5_html\\themes\\medium-white\\pretty.css',
   'DATA'),
  ('kivy_install\\modules\\touchring.py',
   'C:\\Users\\Destiny\\AppData\\Local\\Programs\\Python\\Python35\\lib\\site-packages\\kivy\\modules\\touchring.py',
   'DATA'),
  ('docutils\\writers\\s5_html\\themes\\medium-black\\pretty.css',
   'C:\\Users\\Destiny\\AppData\\Local\\Programs\\Python\\Python35\\lib\\site-packages\\docutils\\writers\\s5_html\\themes\\medium-black\\pretty.css',
   'DATA'),
  ('docutils\\writers\\s5_html\\themes\\small-black\\__base__',
   'C:\\Users\\Destiny\\AppData\\Local\\Programs\\Python\\Python35\\lib\\site-packages\\docutils\\writers\\s5_html\\themes\\small-black\\__base__',
   'DATA'),
  ('kivy_install\\data\\images\\defaulttheme.atlas',
   'C:\\Users\\Destiny\\AppData\\Local\\Programs\\Python\\Python35\\lib\\site-packages\\kivy\\data\\images\\defaulttheme.atlas',
   'DATA'),
  ('docutils\\parsers\\rst\\include\\isoamsc.txt',
   'C:\\Users\\Destiny\\AppData\\Local\\Programs\\Python\\Python35\\lib\\site-packages\\docutils\\parsers\\rst\\include\\isoamsc.txt',
   'DATA'),
  ('docutils\\writers\\s5_html\\themes\\medium-white\\framing.css',
   'C:\\Users\\Destiny\\AppData\\Local\\Programs\\Python\\Python35\\lib\\site-packages\\docutils\\writers\\s5_html\\themes\\medium-white\\framing.css',
   'DATA'),
  ('docutils\\writers\\s5_html\\themes\\medium-black\\__base__',
   'C:\\Users\\Destiny\\AppData\\Local\\Programs\\Python\\Python35\\lib\\site-packages\\docutils\\writers\\s5_html\\themes\\medium-black\\__base__',
   'DATA'),
  ('kivy_install\\modules\\__pycache__\\inspector.cpython-35.pyc',
   'C:\\Users\\Destiny\\AppData\\Local\\Programs\\Python\\Python35\\lib\\site-packages\\kivy\\modules\\__pycache__\\inspector.cpython-35.pyc',
   'DATA'),
  ('docutils\\parsers\\rst\\include\\isogrk3.txt',
   'C:\\Users\\Destiny\\AppData\\Local\\Programs\\Python\\Python35\\lib\\site-packages\\docutils\\parsers\\rst\\include\\isogrk3.txt',
   'DATA'),
  ('kivy_install\\data\\fonts\\RobotoMono-Regular.ttf',
   'C:\\Users\\Destiny\\AppData\\Local\\Programs\\Python\\Python35\\lib\\site-packages\\kivy\\data\\fonts\\RobotoMono-Regular.ttf',
   'DATA'),
  ('docutils\\parsers\\rst\\include\\isolat2.txt',
   'C:\\Users\\Destiny\\AppData\\Local\\Programs\\Python\\Python35\\lib\\site-packages\\docutils\\parsers\\rst\\include\\isolat2.txt',
   'DATA'),
  ('docutils\\writers\\s5_html\\themes\\default\\print.css',
   'C:\\Users\\Destiny\\AppData\\Local\\Programs\\Python\\Python35\\lib\\site-packages\\docutils\\writers\\s5_html\\themes\\default\\print.css',
   'DATA'),
  ('docutils\\writers\\html5_polyglot\\template.txt',
   'C:\\Users\\Destiny\\AppData\\Local\\Programs\\Python\\Python35\\lib\\site-packages\\docutils\\writers\\html5_polyglot\\template.txt',
   'DATA'),
  ('kivy_install\\data\\fonts\\Roboto-Bold.ttf',
   'C:\\Users\\Destiny\\AppData\\Local\\Programs\\Python\\Python35\\lib\\site-packages\\kivy\\data\\fonts\\Roboto-Bold.ttf',
   'DATA'),
  ('docutils\\writers\\s5_html\\themes\\big-white\\framing.css',
   'C:\\Users\\Destiny\\AppData\\Local\\Programs\\Python\\Python35\\lib\\site-packages\\docutils\\writers\\s5_html\\themes\\big-white\\framing.css',
   'DATA'),
  ('kivy_install\\data\\keyboards\\qwerty.json',
   'C:\\Users\\Destiny\\AppData\\Local\\Programs\\Python\\Python35\\lib\\site-packages\\kivy\\data\\keyboards\\qwerty.json',
   'DATA'),
  ('docutils\\parsers\\rst\\include\\isoamsb.txt',
   'C:\\Users\\Destiny\\AppData\\Local\\Programs\\Python\\Python35\\lib\\site-packages\\docutils\\parsers\\rst\\include\\isoamsb.txt',
   'DATA'),
  ('kivy_install\\data\\keyboards\\de.json',
   'C:\\Users\\Destiny\\AppData\\Local\\Programs\\Python\\Python35\\lib\\site-packages\\kivy\\data\\keyboards\\de.json',
   'DATA'),
  ('kivy_install\\modules\\__init__.py',
   'C:\\Users\\Destiny\\AppData\\Local\\Programs\\Python\\Python35\\lib\\site-packages\\kivy\\modules\\__init__.py',
   'DATA'),
  ('kivy_install\\data\\images\\image-loading.gif',
   'C:\\Users\\Destiny\\AppData\\Local\\Programs\\Python\\Python35\\lib\\site-packages\\kivy\\data\\images\\image-loading.gif',
   'DATA'),
  ('kivy_install\\modules\\__pycache__\\touchring.cpython-35.pyc',
   'C:\\Users\\Destiny\\AppData\\Local\\Programs\\Python\\Python35\\lib\\site-packages\\kivy\\modules\\__pycache__\\touchring.cpython-35.pyc',
   'DATA'),
  ('kivy_install\\modules\\__pycache__\\cursor.cpython-35.pyc',
   'C:\\Users\\Destiny\\AppData\\Local\\Programs\\Python\\Python35\\lib\\site-packages\\kivy\\modules\\__pycache__\\cursor.cpython-35.pyc',
   'DATA'),
  ('docutils\\parsers\\rst\\include\\isocyr1.txt',
   'C:\\Users\\Destiny\\AppData\\Local\\Programs\\Python\\Python35\\lib\\site-packages\\docutils\\parsers\\rst\\include\\isocyr1.txt',
   'DATA'),
  ('docutils\\parsers\\rst\\include\\isomopf.txt',
   'C:\\Users\\Destiny\\AppData\\Local\\Programs\\Python\\Python35\\lib\\site-packages\\docutils\\parsers\\rst\\include\\isomopf.txt',
   'DATA'),
  ('kivy_install\\data\\fonts\\Roboto-Italic.ttf',
   'C:\\Users\\Destiny\\AppData\\Local\\Programs\\Python\\Python35\\lib\\site-packages\\kivy\\data\\fonts\\Roboto-Italic.ttf',
   'DATA'),
  ('kivy_install\\data\\logo\\kivy-icon-64.png',
   'C:\\Users\\Destiny\\AppData\\Local\\Programs\\Python\\Python35\\lib\\site-packages\\kivy\\data\\logo\\kivy-icon-64.png',
   'DATA'),
  ('docutils\\writers\\html4css1\\html4css1.css',
   'C:\\Users\\Destiny\\AppData\\Local\\Programs\\Python\\Python35\\lib\\site-packages\\docutils\\writers\\html4css1\\html4css1.css',
   'DATA'),
  ('kivy_install\\data\\logo\\kivy-icon-128.png',
   'C:\\Users\\Destiny\\AppData\\Local\\Programs\\Python\\Python35\\lib\\site-packages\\kivy\\data\\logo\\kivy-icon-128.png',
   'DATA'),
  ('Include\\pyconfig.h',
   'C:\\Users\\Destiny\\AppData\\Local\\Programs\\Python\\Python35\\Include\\pyconfig.h',
   'DATA'),
  ('kivy_install\\data\\logo\\kivy-icon-256.png',
   'C:\\Users\\Destiny\\AppData\\Local\\Programs\\Python\\Python35\\lib\\site-packages\\kivy\\data\\logo\\kivy-icon-256.png',
   'DATA'),
  ('kivy_install\\modules\\__pycache__\\recorder.cpython-35.pyc',
   'C:\\Users\\Destiny\\AppData\\Local\\Programs\\Python\\Python35\\lib\\site-packages\\kivy\\modules\\__pycache__\\recorder.cpython-35.pyc',
   'DATA'),
  ('docutils\\parsers\\rst\\include\\mmlalias.txt',
   'C:\\Users\\Destiny\\AppData\\Local\\Programs\\Python\\Python35\\lib\\site-packages\\docutils\\parsers\\rst\\include\\mmlalias.txt',
   'DATA'),
  ('kivy_install\\modules\\__pycache__\\monitor.cpython-35.pyc',
   'C:\\Users\\Destiny\\AppData\\Local\\Programs\\Python\\Python35\\lib\\site-packages\\kivy\\modules\\__pycache__\\monitor.cpython-35.pyc',
   'DATA'),
  ('docutils\\parsers\\rst\\include\\xhtml1-special.txt',
   'C:\\Users\\Destiny\\AppData\\Local\\Programs\\Python\\Python35\\lib\\site-packages\\docutils\\parsers\\rst\\include\\xhtml1-special.txt',
   'DATA'),
  ('kivy_install\\data\\images\\defaulttheme-0.png',
   'C:\\Users\\Destiny\\AppData\\Local\\Programs\\Python\\Python35\\lib\\site-packages\\kivy\\data\\images\\defaulttheme-0.png',
   'DATA'),
  ('kivy_install\\modules\\__pycache__\\keybinding.cpython-35.pyc',
   'C:\\Users\\Destiny\\AppData\\Local\\Programs\\Python\\Python35\\lib\\site-packages\\kivy\\modules\\__pycache__\\keybinding.cpython-35.pyc',
   'DATA'),
  ('docutils\\parsers\\rst\\include\\isogrk2.txt',
   'C:\\Users\\Destiny\\AppData\\Local\\Programs\\Python\\Python35\\lib\\site-packages\\docutils\\parsers\\rst\\include\\isogrk2.txt',
   'DATA'),
  ('docutils\\writers\\html5_polyglot\\math.css',
   'C:\\Users\\Destiny\\AppData\\Local\\Programs\\Python\\Python35\\lib\\site-packages\\docutils\\writers\\html5_polyglot\\math.css',
   'DATA'),
  ('docutils\\writers\\s5_html\\themes\\default\\iepngfix.htc',
   'C:\\Users\\Destiny\\AppData\\Local\\Programs\\Python\\Python35\\lib\\site-packages\\docutils\\writers\\s5_html\\themes\\default\\iepngfix.htc',
   'DATA'),
  ('kivy_install\\modules\\__pycache__\\webdebugger.cpython-35.pyc',
   'C:\\Users\\Destiny\\AppData\\Local\\Programs\\Python\\Python35\\lib\\site-packages\\kivy\\modules\\__pycache__\\webdebugger.cpython-35.pyc',
   'DATA'),
  ('kivy_install\\modules\\__pycache__\\screen.cpython-35.pyc',
   'C:\\Users\\Destiny\\AppData\\Local\\Programs\\Python\\Python35\\lib\\site-packages\\kivy\\modules\\__pycache__\\screen.cpython-35.pyc',
   'DATA'),
  ('docutils\\parsers\\rst\\include\\isodia.txt',
   'C:\\Users\\Destiny\\AppData\\Local\\Programs\\Python\\Python35\\lib\\site-packages\\docutils\\parsers\\rst\\include\\isodia.txt',
   'DATA'),
  ('docutils\\parsers\\rst\\include\\isoamsa.txt',
   'C:\\Users\\Destiny\\AppData\\Local\\Programs\\Python\\Python35\\lib\\site-packages\\docutils\\parsers\\rst\\include\\isoamsa.txt',
   'DATA'),
  ('docutils\\writers\\latex2e\\default.tex',
   'C:\\Users\\Destiny\\AppData\\Local\\Programs\\Python\\Python35\\lib\\site-packages\\docutils\\writers\\latex2e\\default.tex',
   'DATA'),
  ('docutils\\writers\\s5_html\\themes\\big-black\\__base__',
   'C:\\Users\\Destiny\\AppData\\Local\\Programs\\Python\\Python35\\lib\\site-packages\\docutils\\writers\\s5_html\\themes\\big-black\\__base__',
   'DATA'),
  ('lib2to3\\PatternGrammar.txt',
   'C:\\Users\\Destiny\\AppData\\Local\\Programs\\Python\\Python35\\lib\\lib2to3\\PatternGrammar.txt',
   'DATA'),
  ('docutils\\writers\\s5_html\\themes\\default\\pretty.css',
   'C:\\Users\\Destiny\\AppData\\Local\\Programs\\Python\\Python35\\lib\\site-packages\\docutils\\writers\\s5_html\\themes\\default\\pretty.css',
   'DATA'),
  ('kivy_install\\data\\keyboards\\azerty.json',
   'C:\\Users\\Destiny\\AppData\\Local\\Programs\\Python\\Python35\\lib\\site-packages\\kivy\\data\\keyboards\\azerty.json',
   'DATA'),
  ('docutils\\parsers\\rst\\include\\isogrk4.txt',
   'C:\\Users\\Destiny\\AppData\\Local\\Programs\\Python\\Python35\\lib\\site-packages\\docutils\\parsers\\rst\\include\\isogrk4.txt',
   'DATA'),
  ('docutils\\writers\\pep_html\\template.txt',
   'C:\\Users\\Destiny\\AppData\\Local\\Programs\\Python\\Python35\\lib\\site-packages\\docutils\\writers\\pep_html\\template.txt',
   'DATA'),
  ('kivy_install\\data\\glsl\\default.fs',
   'C:\\Users\\Destiny\\AppData\\Local\\Programs\\Python\\Python35\\lib\\site-packages\\kivy\\data\\glsl\\default.fs',
   'DATA'),
  ('lib2to3\\Grammar.txt',
   'C:\\Users\\Destiny\\AppData\\Local\\Programs\\Python\\Python35\\lib\\lib2to3\\Grammar.txt',
   'DATA'),
  ('kivy_install\\data\\images\\background.jpg',
   'C:\\Users\\Destiny\\AppData\\Local\\Programs\\Python\\Python35\\lib\\site-packages\\kivy\\data\\images\\background.jpg',
   'DATA'),
  ('docutils\\writers\\html5_polyglot\\plain.css',
   'C:\\Users\\Destiny\\AppData\\Local\\Programs\\Python\\Python35\\lib\\site-packages\\docutils\\writers\\html5_polyglot\\plain.css',
   'DATA'),
  ('kivy_install\\data\\keyboards\\de_CH.json',
   'C:\\Users\\Destiny\\AppData\\Local\\Programs\\Python\\Python35\\lib\\site-packages\\kivy\\data\\keyboards\\de_CH.json',
   'DATA'),
  ('kivy_install\\modules\\recorder.py',
   'C:\\Users\\Destiny\\AppData\\Local\\Programs\\Python\\Python35\\lib\\site-packages\\kivy\\modules\\recorder.py',
   'DATA'),
  ('docutils\\writers\\s5_html\\themes\\small-white\\pretty.css',
   'C:\\Users\\Destiny\\AppData\\Local\\Programs\\Python\\Python35\\lib\\site-packages\\docutils\\writers\\s5_html\\themes\\small-white\\pretty.css',
   'DATA'),
  ('kivy_install\\data\\images\\testpattern.png',
   'C:\\Users\\Destiny\\AppData\\Local\\Programs\\Python\\Python35\\lib\\site-packages\\kivy\\data\\images\\testpattern.png',
   'DATA'),
  ('docutils\\parsers\\rst\\include\\isonum.txt',
   'C:\\Users\\Destiny\\AppData\\Local\\Programs\\Python\\Python35\\lib\\site-packages\\docutils\\parsers\\rst\\include\\isonum.txt',
   'DATA'),
  ('docutils\\writers\\s5_html\\themes\\default\\blank.gif',
   'C:\\Users\\Destiny\\AppData\\Local\\Programs\\Python\\Python35\\lib\\site-packages\\docutils\\writers\\s5_html\\themes\\default\\blank.gif',
   'DATA'),
  ('docutils\\parsers\\rst\\include\\isogrk1.txt',
   'C:\\Users\\Destiny\\AppData\\Local\\Programs\\Python\\Python35\\lib\\site-packages\\docutils\\parsers\\rst\\include\\isogrk1.txt',
   'DATA'),
  ('docutils\\parsers\\rst\\include\\isocyr2.txt',
   'C:\\Users\\Destiny\\AppData\\Local\\Programs\\Python\\Python35\\lib\\site-packages\\docutils\\parsers\\rst\\include\\isocyr2.txt',
   'DATA'),
  ('kivy_install\\modules\\webdebugger.py',
   'C:\\Users\\Destiny\\AppData\\Local\\Programs\\Python\\Python35\\lib\\site-packages\\kivy\\modules\\webdebugger.py',
   'DATA'),
  ('docutils\\writers\\s5_html\\themes\\big-black\\framing.css',
   'C:\\Users\\Destiny\\AppData\\Local\\Programs\\Python\\Python35\\lib\\site-packages\\docutils\\writers\\s5_html\\themes\\big-black\\framing.css',
   'DATA'),
  ('kivy_install\\data\\fonts\\Roboto-BoldItalic.ttf',
   'C:\\Users\\Destiny\\AppData\\Local\\Programs\\Python\\Python35\\lib\\site-packages\\kivy\\data\\fonts\\Roboto-BoldItalic.ttf',
   'DATA'),
  ('kivy_install\\modules\\cursor.py',
   'C:\\Users\\Destiny\\AppData\\Local\\Programs\\Python\\Python35\\lib\\site-packages\\kivy\\modules\\cursor.py',
   'DATA'),
  ('docutils\\writers\\odf_odt\\styles.odt',
   'C:\\Users\\Destiny\\AppData\\Local\\Programs\\Python\\Python35\\lib\\site-packages\\docutils\\writers\\odf_odt\\styles.odt',
   'DATA')],)
